<?xml version="1.0" encoding="UTF-8" standalone="no"?>
<svg width="186px" height="140px" viewBox="0 0 186 140" version="1.1" xmlns="http://www.w3.org/2000/svg" xmlns:xlink="http://www.w3.org/1999/xlink">
    <!-- Generator: sketchtool 46.1 (44463) - http://www.bohemiancoding.com/sketch -->
    <title>46370EC4-58C4-4982-BF7E-A2899883153B</title>
    <desc>Created with sketchtool.</desc>
    <defs>
        <linearGradient x1="45.1696875%" y1="100%" x2="45.1696873%" y2="0%" id="linearGradient-1">
            <stop stop-color="#E9EBEC" offset="0%"></stop>
            <stop stop-color="#FFFFFF" offset="100%"></stop>
        </linearGradient>
        <polygon id="path-2" points="0 0 186 0 186 140 0 140"></polygon>
    </defs>
    <g id="Page-1" stroke="none" stroke-width="1" fill="none" fill-rule="evenodd">
        <g id="Goods-of-the-year" transform="translate(-1017.000000, -423.000000)">
            <g id="Lot_shop" transform="translate(925.000000, 378.000000)">
                <g id="Rend640_img" transform="translate(92.000000, 45.000000)">
                    <g id="Rectangle-Copy-2">
                        <use fill="url(#linearGradient-1)" fill-rule="evenodd" xlink:href="#path-2"></use>
                        <path stroke="#FFFFFF" stroke-width="4" d="M2,2 L2,138 L184,138 L184,2 L2,2 Z"></path>
                    </g>
                    <path d="M50.12,109.216 C48.032,109.216 46.448,108.424 45.344,106.816 C44.24,105.208 43.688,103.144 43.688,100.672 C43.688,95.752 46.016,90.952 51.032,90.952 C52.832,90.952 54.344,91.456 55.568,92.44 L54.56,94.24 C53.528,93.448 52.4,93.04 51.176,93.04 C47.552,93.016 45.992,97.216 46.016,100.144 L46.016,100.24 C46.76,98.632 48.488,97.552 50.6,97.552 C52.208,97.552 53.528,98.104 54.584,99.184 C55.64,100.264 56.168,101.632 56.168,103.288 C56.168,104.992 55.592,106.408 54.464,107.536 C53.336,108.664 51.872,109.216 50.12,109.216 Z M50.144,107.08 C51.176,107.08 52.064,106.72 52.76,106 C53.48,105.256 53.84,104.368 53.84,103.288 C53.84,102.232 53.48,101.368 52.784,100.672 C52.088,99.976 51.224,99.64 50.192,99.64 C49.136,99.64 48.248,100 47.552,100.696 C46.856,101.392 46.496,102.256 46.496,103.312 C46.496,104.368 46.856,105.256 47.552,106 C48.248,106.72 49.112,107.08 50.144,107.08 Z M68.48,102.448 L70.472,102.448 L70.472,104.536 L68.48,104.536 L68.48,109 L66.176,109 L66.176,104.536 L57.92,104.536 L57.416,103.096 L67.112,91.264 L68.48,91.264 L68.48,102.448 Z M66.176,95.608 L60.584,102.448 L66.176,102.448 L66.176,95.608 Z M79.616,109.288 C77.144,109.288 75.248,108.112 74.192,106.288 C73.16,104.464 72.68,102.4 72.68,100.12 C72.68,97.84 73.16,95.776 74.192,93.952 C75.248,92.128 77.144,90.952 79.616,90.952 C84.752,90.952 86.528,95.824 86.528,100.12 C86.528,104.416 84.752,109.288 79.616,109.288 Z M84.104,100.12 C84.104,98.104 83.744,96.448 83,95.152 C82.256,93.832 81.128,93.184 79.616,93.184 C78.104,93.184 76.976,93.832 76.232,95.152 C75.488,96.448 75.128,98.104 75.128,100.12 C75.128,102.16 75.488,103.816 76.232,105.112 C76.976,106.408 78.104,107.056 79.616,107.056 C81.128,107.056 82.256,106.408 83,105.112 C83.744,103.816 84.104,102.16 84.104,100.12 Z M97.496,95.92 L93.944,99.472 L90.392,95.92 L89.048,97.336 L92.576,100.864 L89.024,104.416 L90.392,105.856 L93.968,102.256 L97.544,105.856 L98.912,104.416 L95.36,100.864 L98.912,97.288 L97.496,95.92 Z M106.16,109.288 C107.96,109.288 109.4,108.808 110.528,107.848 C111.656,106.888 112.232,105.64 112.232,104.128 C112.232,101.992 110.912,100.264 108.776,99.784 L108.776,99.688 C110.6,99.112 111.848,97.552 111.848,95.632 C111.848,94.312 111.344,93.184 110.336,92.296 C109.328,91.408 108.032,90.952 106.424,90.952 C104.432,90.952 102.392,91.768 101.12,93.04 L102.344,94.72 C103.688,93.688 104.984,93.16 106.232,93.16 C108.032,93.16 109.4,94.216 109.4,95.944 C109.4,97.648 108.008,98.824 106.064,98.824 L103.904,98.824 L103.904,100.96 L106.088,100.96 C108.224,100.96 109.736,102.232 109.736,104.056 C109.736,105.856 108.344,107.08 106.136,107.08 C104.816,107.08 103.352,106.576 101.792,105.592 L100.712,107.536 C102.44,108.712 104.264,109.288 106.16,109.288 Z M121.184,109.216 C119.096,109.216 117.512,108.424 116.408,106.816 C115.304,105.208 114.752,103.144 114.752,100.672 C114.752,95.752 117.08,90.952 122.096,90.952 C123.896,90.952 125.408,91.456 126.632,92.44 L125.624,94.24 C124.592,93.448 123.464,93.04 122.24,93.04 C118.616,93.016 117.056,97.216 117.08,100.144 L117.08,100.24 C117.824,98.632 119.552,97.552 121.664,97.552 C123.272,97.552 124.592,98.104 125.648,99.184 C126.704,100.264 127.232,101.632 127.232,103.288 C127.232,104.992 126.656,106.408 125.528,107.536 C124.4,108.664 122.936,109.216 121.184,109.216 Z M121.208,107.08 C122.24,107.08 123.128,106.72 123.824,106 C124.544,105.256 124.904,104.368 124.904,103.288 C124.904,102.232 124.544,101.368 123.848,100.672 C123.152,99.976 122.288,99.64 121.256,99.64 C120.2,99.64 119.312,100 118.616,100.696 C117.92,101.392 117.56,102.256 117.56,103.312 C117.56,104.368 117.92,105.256 118.616,106 C119.312,106.72 120.176,107.08 121.208,107.08 Z M136.424,109.288 C133.952,109.288 132.056,108.112 131,106.288 C129.968,104.464 129.488,102.4 129.488,100.12 C129.488,97.84 129.968,95.776 131,93.952 C132.056,92.128 133.952,90.952 136.424,90.952 C141.56,90.952 143.336,95.824 143.336,100.12 C143.336,104.416 141.56,109.288 136.424,109.288 Z M140.912,100.12 C140.912,98.104 140.552,96.448 139.808,95.152 C139.064,93.832 137.936,93.184 136.424,93.184 C134.912,93.184 133.784,93.832 133.04,95.152 C132.296,96.448 131.936,98.104 131.936,100.12 C131.936,102.16 132.296,103.816 133.04,105.112 C133.784,106.408 134.912,107.056 136.424,107.056 C137.936,107.056 139.064,106.408 139.808,105.112 C140.552,103.816 140.912,102.16 140.912,100.12 Z" id="640×360" fill="#269CFF"></path>
                </g>
            </g>
        </g>
    </g>
</svg>